module github.com/containers/image/v5

go 1.11

require (
	github.com/14rcole/gopopulate v0.0.0-20180821133914-b175b219e774 // indirect
	github.com/Azure/go-ansiterm v0.0.0-20170929234023-d6e3b3328b78 // indirect
	github.com/BurntSushi/toml v0.3.1
	github.com/containers/libtrust v0.0.0-20190913040956-14b96171aa3b
	github.com/containers/ocicrypt v1.0.2
	github.com/containers/storage v1.20.2
	github.com/docker/distribution v2.7.1+incompatible
	github.com/docker/docker v1.4.2-0.20191219165747-a9416c67da9f
	github.com/docker/docker-credential-helpers v0.6.3
	github.com/docker/go-connections v0.4.0
	github.com/docker/go-metrics v0.0.1 // indirect
	github.com/docker/libtrust v0.0.0-20160708172513-aabc10ec26b7 // indirect
	github.com/ghodss/yaml v1.0.0
	github.com/gorilla/mux v1.7.4 // indirect
	github.com/imdario/mergo v0.3.9
	github.com/klauspost/compress v1.10.8
	github.com/klauspost/pgzip v1.2.4
	github.com/morikuni/aec v1.0.0 // indirect
	github.com/mtrmac/gpgme v0.1.2
	github.com/opencontainers/go-digest v1.0.0
	github.com/opencontainers/image-spec v1.0.2-0.20190823105129-775207bd45b6
	github.com/opencontainers/selinux v1.5.2
	github.com/ostreedev/ostree-go v0.0.0-20190702140239-759a8c1ac913
	github.com/pkg/errors v0.9.1
	github.com/pquerna/ffjson v0.0.0-20190813045741-dac163c6c0a9 // indirect
	github.com/sirupsen/logrus v1.6.0
	github.com/stretchr/testify v1.6.1
	github.com/ulikunitz/xz v0.5.7
	github.com/vbatts/tar-split v0.11.1
	github.com/vbauerster/mpb/v5 v5.2.2
	github.com/xeipuuv/gojsonpointer v0.0.0-20190809123943-df4f5c81cb3b // indirect
	github.com/xeipuuv/gojsonschema v1.2.0
	go.etcd.io/bbolt v1.3.4
	golang.org/x/crypto v0.0.0-20200423211502-4bdfaf469ed5
	golang.org/x/net v0.0.0-20200324143707-d3edc9973b7e
	golang.org/x/sync v0.0.0-20200317015054-43a5402ce75a
	golang.org/x/sys v0.0.0-20200519105757-fe76b779f299
	golang.org/x/time v0.0.0-20191024005414-555d28b269f0 // indirect
	gopkg.in/check.v1 v1.0.0-20190902080502-41f04d3bba15 // indirect
)
